{
    "title": "Careful - Jim Hall",
    "title_short": "careful",
    "description": "16-bar blues using the half-step/whole step diminished, by the legendary jazz guitarist Jim Hall",
    "level": 1,
    "template": "post",
    "background": {
      "image": "jazz_guitar1.jpg"
    },
    "date": "2024/03/31",
    "tags": [ "guitar", "video"]
  }
  
