{
    "title": "Restoration of an old Afghan Rubab",
    "title_short": "restoration",
    "description": "The wonderful restoration project of an old Afghan Rubab by Javier González",
    "level": 1,
    "template": "post",
    "aside": {
      "image": "rubab_berlin.jpg",
      "caption": "Rubab"
    },
    "background": {
      "image": "rubab_berlin.jpg"
    },
    "date": "2022/08/29 1:0",
    "tags": [ "rubab", "afghanistan", "video"]
  }
  