{
  "title": "Today is Good!",
  "title_short": "Today is Good!",
  "description": "Today is Good - Music by asylum-seekers in Sicily",
  "background": {
    "image": "todayisgood.jpg"
  },
  "aside": {
	"image": "todayisgood.jpg",
	"caption": "Today is Good CD cover"
  },
  "level": 1,
  "template": "post",
  "date": "2018/06/30",
  "tags": [ "guitar" ]
}
