{
  "background": {
    "image": "oud_strings.jpg",
    "style": "dark"
  },
  "title": "Oud lessons",
  "title_short": "Lessons",
  "description": "Oud lessons in London or via Skype by Francesco Iannuzzelli",
  "level": 0
}
