{
  "background": {
    "image": "flowers_dark.jpg",
    "style": "dark"
  },
  "title": "Galleria",
  "level": -1,
  "description": "Foto, sfondi e immagini varie di Francesco Iannuzzelli",
  "template": "gallery"
}
