{
  "title": "Benvenut* su Musilogue",
  "title_short": "Benvenut*",
  "description": "Lancio del nuovo sito",
  "level": 1,
  "background": {
    "image": "flowers.jpg"
  },
  "template": "post",
  "date": "2016/10/15"
}
