{
  "title": "Maftirim - Ensemble Birun",
  "title_short": "Birun",
  "description": "CD di Maftirim, opere in musica orientale ottomana di compositori ebrei sefarditi, registrato dall'Ensemble Birun 2015",
  "background": {
    "image": "venice.jpg"
  },
  "aside": {
	"image": "maftirim.jpg",
	"caption": "Maftirim CD copertina"
  },
  "level": 1,
  "template": "post",
  "date": "2016/05/11 1:0",
  "tags": [ "ottomana"]
}
