{
  "title": "Serif Muhiddin Haydar",
  "title_short": "Haydar",
  "description": "Le origini della generazione di oudisti iracheni",
  "background": {
    "image": "fadel_back.jpg"
  },
  "aside": {
	"image": "haydar.jpg",
	"caption": "Serif Muhiddin Haydar"
  },
  "level": 1,
  "template": "post",
  "date": "2014/04/22 1:0",
  "tags": [ "ricerca", "irak"]
}
