{
  "title": "Kapris di Jamil Bashir - Guida allo studio",
  "title_short": "Kapris",
  "description": "Guida allo studi odi Kapris, una composizione di Jamil Bashir",
  "background": {
    "image": "samai_nahawand.jpg"
  },
  "aside": {
	"image": "kapris.jpg",
	"caption": "Kapris - Jamil Bashir"
  },
  "level": 1,
  "template": "post",
  "date": "2018/09/24",
  "tags": [ "ricerca", "irak","oud"]
}
