{
    "title": "Fingerpicking Paolo Conte",
    "title_short": "Paolo Conte",
    "description": "Adattamenti per chitarra acustica dei classici di Paolo Conte",
    "level": 1,
    "template": "post",
    "aside": {
      "image": "conte.jpg",
      "caption": "Paolo Conte"
    },
    "background": {
      "image": "conte_cover_uffizi.jpg"
    },
    "date": "2023/04/21 1:0",
    "tags": [ "chitarra", "video"]
  }
  
