{
  "title": "Power",
  "description": "Composizione di Francesco Iannuzzelli per due volta-pagine, 2 musicisti e 1 cronometrista",
  "level": 1,
  "background": {
    "image": "music_stand.jpg"
  },
  "template": "post",
  "date": "2012/10/29 1:0",
  "tags": [ "composizione"]
}
