{
	"no_events": "Non sono previsti concerti",
	"event_more_details": "Video e altre informazioni",
	"photo_by": "Foto di",
	"press_links": "Links",
	"more_info": "Per maggiori informazioni",
	"source": "Fonte",
	"title": "Titolo"
}
