{
  "background": {
    "image": "topkapi.jpg",
    "style": "dark"
  },
  "aside": {
	"image": "musilogue_w.png",
	"caption": "Musilogue logo"
  },
  "title": "About",
  "description": "About Musilogue",
  "level": 0
}
