{
  "background": {
    "image": "fountain.jpg",
    "style": "dark"
  },
  "aside": {
	"image": "fadel_label.jpg",
	"caption": "Mohammed Fadel label",
	"shadow": true
  },
  "title": "Terms & Conditions",
  "title_short": "Info",
  "description": "Terms, conditions and other boring stuff",
  "level": 0
}
