{
	"relationships": [
		["iraq","oud"],
		["afghanistan","rubab"]
	],
	"parents": [{
		"composition": ["orchestra"],
		"iraq": ["munir bashir","jamil bashir","salman shukur","sherif muhiddin haydar"]
	}]
}
