[{
	"tag": "orchestra",
	"title": "Orchestral Works",
	"description": "Orchestral works composed by Francesco Iannuzzelli",
	"background": {
		"image": "viola.jpg",
		"style": "dark"
	}
},
{
	"tag": "composition",
	"title": "Compositions",
	"description": "Original music compositions by Francesco Iannuzzelli",
	"background": {
		"image": "due.jpg",
		"style": "dark"
	}
},
{
	"tag": "research",
	"title": "Research",
	"description": "Papers, essays, music analysis, teaching materials and other writings",
	"background": {
		"image": "fadel_inside2.jpg",
		"style": "dark"
	}
},
{
	"tag": "oud",
	"title": "Oud",
	"description": "Posts related to Oud (videos, recordings, projects, teaching materials)",
	"background": {
		"image": "oud_bridge.jpg",
		"style": "dark"
	}
},
{
	"tag": "guitar",
	"title": "Guitar",
	"description": "Posts related to Guitar (videos, recordings, projects, teaching materials)",
	"background": {
		"image": "guitar_strings.jpg",
		"style": "dark"
	}
},
{
	"tag": "rubab",
	"title": "Rubab",
	"description": "Posts related to Afghan Rubab (videos, recordings, projects, teaching materials)",
	"background": {
		"image": "rubab.jpg",
		"style": "dark"
	}
},
{
	"tag": "afghanistan",
	"title": "Afghanistan",
	"description": "Posts related to the music of Afghanistan",
	"background": {
		"image": "carpet_afghan.jpg",
		"style": "dark"
	}
},
{
	"tag": "ottoman",
	"title": "Ottoman Music",
	"description": "Posts related to Ottoman classical music",
	"background": {
		"image": "shahrud.jpg",
		"style": "dark"
	}
},
{
	"tag": "iran",
	"title": "Iran",
	"description": "Posts related to Iran, its music tradition and musicians",
	"background": {
		"image": "iran_dark.jpg",
		"style": "dark"
	}
},
{
	"tag": "iraq",
	"title": "Iraq",
	"description": "Posts related to Iraq, its music tradition (Iraqi Maqam) and musicians",
	"background": {
		"image": "oud_flower.jpg",
		"style": "dark"
	}
},
{
	"tag": "migrants",
	"title": "Migrants",
	"description": "Projects with migrants",
	"background": {
		"image": "africa.jpg",
		"style": "dark"
	}
},
{
	"tag": "palestine",
	"title": "Palestine",
	"description": "Posts related to Palestine",
	"background": {
		"image": "nablus.jpg",
		"style": "dark"
	}
},
{
	"tag": "video",
	"title": "Video",
	"description": "Posts including videos",
	"background": {
		"image": "mic.jpg",
		"style": "dark"
	}
}]
